\contentsline {section}{\numberline {1}Projected Statistics}{1}{section.1}
\contentsline {subsection}{\numberline {1.1}3D field}{1}{subsection.1.1}
\contentsline {subsection}{\numberline {1.2}power spectrum}{1}{subsection.1.2}
\contentsline {subsection}{\numberline {1.3}squared field}{2}{subsection.1.3}
